<svg xmlns="http://www.w3.org/2000/svg" width="113.121" height="30" viewBox="0 0 113.121 30">
  <defs>
    <style>
      .cls-1, .cls-2 {
        fill: #e0e0e0;
      }

      .cls-1 {
        fill-rule: evenodd;
      }
    </style>
  </defs>
  <g id="组_320" data-name="组 320" transform="translate(-2690 135)">
    <g id="组_114" data-name="组 114" transform="translate(2690 -135)">
      <g id="组_112" data-name="组 112" transform="translate(0 0)">
        <g id="组_110" data-name="组 110" transform="translate(0 1.155)">
          <path id="路径_159" data-name="路径 159" class="cls-1" d="M133.064,195.617a.3.3,0,0,0-.293-.3.289.289,0,0,0-.221.1,15.213,15.213,0,0,1-22.3-.113.284.284,0,0,0-.22-.1.3.3,0,0,0-.3.3.287.287,0,0,0,.072.191h0a14.461,14.461,0,0,0,23.184.122h0A.3.3,0,0,0,133.064,195.617Z" transform="translate(-106.977 -172.719)"/>
          <path id="路径_160" data-name="路径 160" class="cls-1" d="M135.142,152.014a.294.294,0,0,0-.111.4.3.3,0,0,0,.2.146,15.211,15.211,0,0,1,11.049,19.364.294.294,0,0,0,.426.354.308.308,0,0,0,.13-.161h0a14.459,14.459,0,0,0-11.486-20.135h0A.281.281,0,0,0,135.142,152.014Z" transform="translate(-119.108 -151.96)"/>
          <path id="路径_161" data-name="路径 161" class="cls-1" d="M105.707,172.124a.293.293,0,0,0,.429-.345,15.21,15.21,0,0,1,11.25-19.251.287.287,0,0,0,.2-.141.293.293,0,0,0-.31-.436h0a14.46,14.46,0,0,0-11.7,20.014h0A.28.28,0,0,0,105.707,172.124Z" transform="translate(-104.428 -151.945)"/>
        </g>
        <g id="组_111" data-name="组 111" transform="translate(0.946)">
          <path id="路径_162" data-name="路径 162" class="cls-1" d="M106.923,181.289l8.04-2.468a.063.063,0,0,0,.02-.006h0a.1.1,0,0,0,.038-.019.23.23,0,0,0-.091-.43v0l-1.15-.2h0a.178.178,0,0,1-.148-.17.18.18,0,0,1,.056-.131h0l4.784-5.512a1.632,1.632,0,0,1,.492-.44,1.611,1.611,0,0,1,1.4-.1l-1.836-5.323L106.387,180.47h0a.5.5,0,0,0-.074.6.5.5,0,0,0,.608.214Z" transform="translate(-106.248 -157.773)"/>
          <path id="路径_163" data-name="路径 163" class="cls-1" d="M140.716,186.964l-6.155-5.729-.016-.014h0a.193.193,0,0,0-.034-.024.234.234,0,0,0-.319.086.242.242,0,0,0-.01.21h0l.4,1.1h0a.174.174,0,0,1-.075.212.176.176,0,0,1-.14.018h0l-7.166-1.387a1.6,1.6,0,0,1-1.414-1.365l-3.691,4.252,18.18,3.519v0a.506.506,0,0,0,.556-.235.5.5,0,0,0-.117-.635Z" transform="translate(-113.859 -164.296)"/>
          <path id="路径_164" data-name="路径 164" class="cls-1" d="M127.689,158.336c0,.006,0,.014,0,.018v0h0a.149.149,0,0,0,0,.041.233.233,0,0,0,.42.137h0l.749-.894h0a.178.178,0,0,1,.221-.041.167.167,0,0,1,.084.113h0l2.382,6.9a1.614,1.614,0,0,1-.476,1.909l5.528,1.069-6.044-17.5h0a.5.5,0,0,0-.48-.362.485.485,0,0,0-.48.416Z" transform="translate(-116.542 -149.723)"/>
        </g>
      </g>
      <g id="组_113" data-name="组 113" transform="translate(36.001 7.2)">
        <path id="路径_165" data-name="路径 165" class="cls-1" d="M186.41,169.18h-7.716a.608.608,0,1,1,0-1.216h12.115v-4.389H178.694a5,5,0,0,0,0,9.993h7.716a.609.609,0,0,1,0,1.218H174.294v4.385H186.41a5,5,0,0,0,0-9.992Z" transform="translate(-173.698 -163.576)"/>
        <path id="路径_166" data-name="路径 166" class="cls-1" d="M222.327,179.173h5.5l-7.278-15.6h-5.5l-7.281,15.6h5.505l1.1-2.612h6.864Zm-6.268-6.637,1.738-4.14,1.741,4.14Z" transform="translate(-190.06 -163.576)"/>
        <path id="路径_167" data-name="路径 167" class="cls-2" d="M261.013,163.58v.005h-.091v9.256l-6.81-9.261h-5.344v15.594h4.575V169.91l6.81,9.269,5.343,0V163.58Z" transform="translate(-209.752 -163.578)"/>
        <path id="路径_168" data-name="路径 168" class="cls-2" d="M298.039,163.58l-4.62,6.282L288.8,163.58h-5.446l7.342,9.986v5.608h5.443v-5.608l7.343-9.986Z" transform="translate(-226.363 -163.578)"/>
      </g>
    </g>
  </g>
</svg>
